--- UTaU_1AT_S2W.0 ['0x1', '0x00', '0x00', '0x00', '0x00', '0x00', '0x00', '0x00', '0x00', '0x00', '0x00', '0x00', '0x00', '0x00', '0x00', '0x00']
--- UTaU_2AB_M1E.0 ['0x1', '0x00', '0x00', '0x00', '0x00', '0x2', '0x00', '0x00', '0x00', '0x00', '0x4', '0x00', '0x00', '0x00', '0x00', '0x8']
--- UTaU_2AB_M4.0 ['0x10', '0x00', '0x00', '0x00', '0x00', '0x00', '0x00', '0x00', '0x00', '0x00', '0x00', '0x00', '0x00', '0x00', '0x00', '0x00']
--- UTaU_5AT_M1.0 ['0x1', '0x00', '0x00', '0x00', '0x00', '0x00', '0x00', '0x00', '0x00', '0x00', '0x00', '0x00', '0x00', '0x00', '0x00', '0x00']
--- UTaU_8AB_S2.0 ['0x00', '0x00', '0x00', '0x00', '0x00', '0x1', '0x00', '0x00', '0x00', '0x00', '0x00', '0x00', '0x00', '0x00', '0x00', '0x00']
--- UTaU_8CT_M2.0 ['0x00', '0x00', '0x00', '0x00', '0x00', '0x00', '0x00', '0x00', '0x00', '0x00', '0x00', '0x00', '0x4', '0x00', '0x00', '0x00']
--- UTaX_1AB_S1W.0 ['0x00', '0x00', '0x00', '0x00', '0x00', '0x00', '0x00', '0x00', '0x00', '0x00', '0x20', '0x00', '0x00', '0x00', '0x00', '0x00']
--- UTaX_1AT_M1E.0 ['0x00', '0x00', '0x00', '0x00', '0x4', '0x00', '0x00', '0x00', '0x00', '0x00', '0x00', '0x00', '0x00', '0x00', '0x00', '0x00']
--- UTaX_2AB_S3.0 ['0x1', '0x00', '0x00', '0x00', '0x00', '0x00', '0x00', '0x00', '0x00', '0x00', '0x00', '0x00', '0x00', '0x00', '0x00', '0x00']
--- UTaX_2AT_M1E.0 ['0x1', '0x00', '0x00', '0x00', '0x00', '0x00', '0x00', '0x00', '0x00', '0x00', '0x00', '0x00', '0x00', '0x00', '0x00', '0x2']
--- UTaX_2AT_M1W.0 ['0x00', '0x00', '0x00', '0x00', '0x00', '0x00', '0x00', '0x00', '0x00', '0x00', '0x00', '0x00', '0x00', '0x00', '0x00', '0x1']
--- UTaX_2CT_M1E.0 ['0x2', '0x00', '0x00', '0x00', '0x00', '0x00', '0x00', '0x00', '0x00', '0x00', '0x00', '0x00', '0x00', '0x00', '0x00', '0x00']
--- UTaX_4AT_M2.0 ['0x00', '0x00', '0x00', '0x00', '0x00', '0x00', '0x00', '0x8', '0x00', '0x00', '0x00', '0x00', '0x00', '0x00', '0x00', '0x00']
--- UTaX_7AT_M4.0 ['0x00', '0x00', '0x00', '0x00', '0x00', '0x00', '0x00', '0x00', '0x00', '0x20', '0x00', '0x00', '0x00', '0x00', '0x00', '0x00']
--- UTbV_2AB_M1E.0 ['0x1', '0x00', '0x00', '0x00', '0x00', '0x00', '0x00', '0x00', '0x00', '0x00', '0x00', '0x00', '0x00', '0x00', '0x00', '0x00']
--- UTbV_2AB_M3.0 ['0x00', '0x8', '0x00', '0x00', '0x00', '0x00', '0x00', '0x00', '0x00', '0x00', '0x00', '0x00', '0x00', '0x00', '0x00', '0x00']
--- UTbV_2AT_S1W.0 ['0x1', '0x00', '0x00', '0x00', '0x00', '0x00', '0x00', '0x00', '0x00', '0x00', '0x00', '0x00', '0x00', '0x00', '0x00', '0x00']
--- UTbV_4CB_S2.0 ['0x1', '0x00', '0x00', '0x00', '0x00', '0x00', '0x00', '0x00', '0x00', '0x00', '0x00', '0x00', '0x00', '0x00', '0x00', '0x00']
--- UTbV_4CT_S3.0 ['0x1', '0x00', '0x00', '0x00', '0x00', '0x00', '0x00', '0x00', '0x00', '0x00', '0x00', '0x00', '0x00', '0x00', '0x00', '0x00']
--- UTbV_5AT_S1.0 ['0x00', '0x00', '0x00', '0x00', '0x00', '0x20', '0x00', '0x00', '0x00', '0x00', '0x00', '0x00', '0x00', '0x00', '0x00', '0x00']
--- UTbV_6CT_M4.0 ['0x1', '0x00', '0x00', '0x00', '0x00', '0x00', '0x00', '0x00', '0x00', '0x00', '0x00', '0x00', '0x00', '0x00', '0x00', '0x00']
--- UTbX_1AT_S1W.0 ['0x1', '0x00', '0x00', '0x00', '0x00', '0x00', '0x00', '0x00', '0x00', '0x00', '0x00', '0x00', '0x00', '0x00', '0x00', '0x00']
--- UTbX_2AB_M1E.0 ['0x2', '0x00', '0x00', '0x00', '0x00', '0x00', '0x00', '0x00', '0x00', '0x00', '0x00', '0x00', '0x00', '0x00', '0x00', '0x00']
--- UTbX_2AT_M1E.0 ['0x1', '0x00', '0x00', '0x00', '0x00', '0x00', '0x00', '0x00', '0x00', '0x00', '0x00', '0x00', '0x00', '0x00', '0x00', '0x00']
--- UTbX_2AT_M1W.0 ['0x1', '0x00', '0x00', '0x00', '0x00', '0x00', '0x00', '0x00', '0x00', '0x00', '0x00', '0x00', '0x00', '0x00', '0x00', '0x00']
--- UTbX_2AT_M4.0 ['0x00', '0x00', '0x00', '0x00', '0x00', '0x1', '0x00', '0x00', '0x00', '0x00', '0x00', '0x00', '0x00', '0x00', '0x00', '0x00']
--- UTbX_7AT_M3.0 ['0x00', '0x00', '0x00', '0x00', '0x2', '0x00', '0x00', '0x00', '0x00', '0x00', '0x00', '0x00', '0x00', '0x00', '0x00', '0x00']
--- UTbX_7AT_S2.0 ['0x00', '0x00', '0x10', '0x00', '0x00', '0x00', '0x00', '0x00', '0x00', '0x00', '0x00', '0x00', '0x00', '0x00', '0x00', '0x00']
--- UTbX_8AB_S3.0 ['0x1', '0x1', '0x00', '0x00', '0x00', '0x00', '0x00', '0x00', '0x00', '0x00', '0x00', '0x00', '0x00', '0x00', '0x00', '0x00']
--- UTaU_3AB_M3.1 ['0x00', '0x00', '0x00', '0x00', '0x00', '0x00', '0x00', '0x00', '0x00', '0x00', '0x00', '0x00', '0x00', '0x00', '0x4', '0x00']
--- UTaU_8AT_M3.1 ['0x2', '0x00', '0x00', '0x00', '0x00', '0x00', '0x00', '0x00', '0x00', '0x00', '0x00', '0x00', '0x00', '0x00', '0x00', '0x00']
--- UTaX_3AB_M2.1 ['0x00', '0x00', '0x00', '0x00', '0x00', '0x00', '0x00', '0x00', '0x00', '0x00', '0x00', '0x00', '0x00', '0x00', '0x80', '0x00']
--- UTbV_3CB_S2.1 ['0x00', '0x00', '0x00', '0x4', '0x00', '0x00', '0x00', '0x00', '0x00', '0x00', '0x00', '0x00', '0x00', '0x00', '0x00', '0x00']
--- UTbV_6AT_M1.1 ['0x00', '0x00', '0x40', '0x00', '0x00', '0x00', '0x00', '0x00', '0x00', '0x00', '0x00', '0x00', '0x00', '0x00', '0x00', '0x00']
--- UTbX_2AT_M2.1 ['0x00', '0x00', '0x00', '0x00', '0x00', '0x00', '0x00', '0x00', '0x00', '0x00', '0x00', '0x8', '0x00', '0x00', '0x00', '0x00']
--- UTaX_3AB_M2.2 ['0x00', '0x00', '0x00', '0x00', '0x00', '0x00', '0x00', '0x00', '0x00', '0x00', '0x00', '0x00', '0x00', '0x00', '0x40', '0x00']
--- UTaX_5AB_S3.2 ['0x00', '0x00', '0x00', '0x2', '0x00', '0x00', '0x00', '0x00', '0x00', '0x00', '0x00', '0x00', '0x00', '0x00', '0x00', '0x00']
--- UTbV_2AB_M3.2 ['0x00', '0x00', '0x00', '0x00', '0x00', '0x00', '0x00', '0x00', '0x00', '0x2', '0x00', '0x00', '0x00', '0x00', '0x00', '0x00']
--- UTbV_2AB_M4.2 ['0x00', '0x4', '0x00', '0x00', '0x00', '0x00', '0x00', '0x00', '0x00', '0x00', '0x00', '0x00', '0x00', '0x00', '0x00', '0x00']
--- UTbV_3CB_S1.2 ['0x00', '0x00', '0x00', '0x00', '0x00', '0x00', '0x00', '0x00', '0x00', '0x00', '0x40', '0x00', '0x00', '0x00', '0x00', '0x00']
--- UTbX_2CB_M2.2 ['0x2', '0x00', '0x00', '0x00', '0x00', '0x00', '0x00', '0x00', '0x00', '0x00', '0x00', '0x00', '0x00', '0x00', '0x00', '0x00']
--- UTbX_8AB_M2.2 ['0x1', '0x00', '0x00', '0x00', '0x00', '0x00', '0x00', '0x00', '0x00', '0x00', '0x00', '0x00', '0x00', '0x00', '0x00', '0x00']
--- UTbX_9CB_M1.2 ['0x00', '0x00', '0x40', '0x00', '0x00', '0x00', '0x00', '0x00', '0x00', '0x00', '0x00', '0x00', '0x00', '0x00', '0x00', '0x00']
--- UTaU_2CT_S1W.3 ['0x00', '0x00', '0x00', '0x00', '0x00', '0x00', '0x00', '0x00', '0x00', '0x00', '0x40', '0x00', '0x00', '0x00', '0x00', '0x00']
--- UTaU_8AB_M2.3 ['0x00', '0x00', '0x00', '0x00', '0x00', '0x00', '0x00', '0x00', '0x00', '0x00', '0x00', '0x00', '0x10', '0x00', '0x00', '0x00']
--- UTaX_2AB_M1W.3 ['0x00', '0x00', '0x00', '0x00', '0x00', '0x00', '0x00', '0x10', '0x00', '0x00', '0x00', '0x00', '0x00', '0x00', '0x00', '0x00']
--- UTaX_7AT_M3.3 ['0x00', '0x00', '0x00', '0x00', '0x00', '0x00', '0x00', '0x00', '0x40', '0x00', '0x00', '0x00', '0x00', '0x00', '0x00', '0x00']
--- UTbV_1CT_M1E.3 ['0x00', '0x00', '0x00', '0x00', '0x00', '0x00', '0x00', '0x00', '0x00', '0x00', '0x00', '0x00', '0x00', '0x10', '0x00', '0x00']
--- UTbV_4AT_M2.3 ['0x00', '0x00', '0x8', '0x00', '0x00', '0x00', '0x00', '0x00', '0x00', '0x00', '0x00', '0x00', '0x00', '0x00', '0x00', '0x00']
--- UTbV_7CB_S3.3 ['0x00', '0x00', '0x00', '0x00', '0x00', '0x00', '0x00', '0x00', '0x00', '0x00', '0x00', '0x00', '0x00', '0x00', '0x00', '0x20']
--- UTbX_2AB_S2.3 ['0x8', '0x00', '0x00', '0x00', '0x00', '0x00', '0x00', '0x00', '0x00', '0x00', '0x00', '0x00', '0x00', '0x00', '0x00', '0x00']
--- UTbX_4AB_M2.3 ['0x00', '0x00', '0x00', '0x10', '0x00', '0x00', '0x00', '0x00', '0x00', '0x00', '0x00', '0x00', '0x00', '0x00', '0x00', '0x00']
--- UTbX_6CT_M4.3 ['0x00', '0x00', '0x10', '0x00', '0x00', '0x00', '0x00', '0x00', '0x00', '0x00', '0x00', '0x00', '0x00', '0x00', '0x00', '0x00']
--- UTbX_7AT_M4.3 ['0x00', '0x00', '0x00', '0x00', '0x00', '0x00', '0x00', '0x00', '0x00', '0x00', '0x00', '0x00', '0x00', '0x20', '0x00', '0x00']
--- UTbX_9CT_S1.3 ['0x00', '0x00', '0x8', '0x00', '0x00', '0x00', '0x00', '0x00', '0x00', '0x00', '0x00', '0x00', '0x00', '0x00', '0x00', '0x00']
